…
    # Extract raw residuals
    data$raw_resid <- residuals(model)

    # Standardize residuals
    data$std_resid <- data$raw_resid / sd(data$raw_resid)

    # Flag potential outliers
    outlier_threshold <- 3
    data$outlier_flag <- abs(data$std_resid) > outlier_threshold

    # Filter rows flagged as outliers
    outliers <- data %>% filter(outlier_flag == TRUE)
    print(outliers)

    ## # A tibble: 34 × 16
    ## # Groups:   date, bag, sample, width.mm, length.mm [29]
    ##        date   bag sample hardening   temperature time  status width.mm length.mm
    ##       <dbl> <dbl> <chr>  <chr>       <chr>       <fct>  <dbl>    <dbl>     <dbl>
    ##  1 20240725    66 7      fresh-water 18C         4          0     15.9      24.3
    ##  2 20240729    37 2      control     18C         4          0     15.4      22.4
    ##  3 20240731    30 5      temperature 18C         4          0     15.5      22.5
    ##  4 20240801    75 13     fresh-wate… 18C         4          0     17.7      21.4
    ##  5 20240801    75 2      fresh-wate… 18C         4          0     16.3      21.7
    ##  6 20240801    75 20     fresh-wate… 18C         4          0     16.7      24.6
    ##  7 20240801    75 3      fresh-wate… 18C         4          0     17.7      22.7
    ##  8 20240801    75 5      fresh-wate… 18C         4          0     16.8      23.9
    ##  9 20240805    50 1      immune      18C         4          0     16.8      21.3
    ## 10 20240805    50 12     immune      18C         4          0     18.2      30.2
    ## # ℹ 24 more rows
    ## # ℹ 7 more variables: final.mortality <chr>, value <dbl>, volume.mm3 <dbl>,
    ## #   value.mm3 <dbl>, raw_resid <dbl>, std_resid <dbl>, outlier_flag <lgl>
…
